<mxfile host="app.diagrams.net" modified="2023-05-12T09:13:51.733Z" agent="Mozilla/5.0 (Windows NT 10.0; Win64; x64) AppleWebKit/537.36 (KHTML, like Gecko) Chrome/112.0.0.0 Safari/537.36" etag="YOWrKaCKH7qz0ALCrevJ" version="21.2.9" type="gitlab">
  <diagram name="Page-1" id="lwO2hY2ZLasjfkb4_-lm">
    <mxGraphModel dx="989" dy="527" grid="1" gridSize="10" guides="1" tooltips="1" connect="1" arrows="1" fold="1" page="1" pageScale="1" pageWidth="850" pageHeight="1100" math="0" shadow="0">
      <root>
        <mxCell id="0" />
        <mxCell id="1" parent="0" />
        <mxCell id="dQaOqvaRXOlE64BF7h_N-3" value="" style="shape=image;html=1;verticalAlign=top;verticalLabelPosition=bottom;labelBackgroundColor=#ffffff;imageAspect=0;aspect=fixed;image=https://cdn0.iconfinder.com/data/icons/phosphor-thin-vol-3/256/hexagon-thin-128.png" vertex="1" parent="1">
          <mxGeometry x="350" y="10" width="128" height="128" as="geometry" />
        </mxCell>
        <mxCell id="dQaOqvaRXOlE64BF7h_N-4" value="" style="shape=image;html=1;verticalAlign=top;verticalLabelPosition=bottom;labelBackgroundColor=#ffffff;imageAspect=0;aspect=fixed;image=https://cdn0.iconfinder.com/data/icons/phosphor-thin-vol-3/256/hexagon-thin-128.png" vertex="1" parent="1">
          <mxGeometry x="60" y="350" width="128" height="128" as="geometry" />
        </mxCell>
        <mxCell id="dQaOqvaRXOlE64BF7h_N-5" value="" style="shape=image;html=1;verticalAlign=top;verticalLabelPosition=bottom;labelBackgroundColor=#ffffff;imageAspect=0;aspect=fixed;image=https://cdn0.iconfinder.com/data/icons/phosphor-thin-vol-3/256/hexagon-thin-128.png" vertex="1" parent="1">
          <mxGeometry x="350" y="500" width="128" height="128" as="geometry" />
        </mxCell>
        <mxCell id="dQaOqvaRXOlE64BF7h_N-6" value="" style="shape=image;html=1;verticalAlign=top;verticalLabelPosition=bottom;labelBackgroundColor=#ffffff;imageAspect=0;aspect=fixed;image=https://cdn0.iconfinder.com/data/icons/phosphor-thin-vol-3/256/hexagon-thin-128.png" vertex="1" parent="1">
          <mxGeometry x="600" y="350" width="128" height="128" as="geometry" />
        </mxCell>
        <mxCell id="dQaOqvaRXOlE64BF7h_N-7" value="" style="shape=image;html=1;verticalAlign=top;verticalLabelPosition=bottom;labelBackgroundColor=#ffffff;imageAspect=0;aspect=fixed;image=https://cdn0.iconfinder.com/data/icons/phosphor-thin-vol-3/256/hexagon-thin-128.png" vertex="1" parent="1">
          <mxGeometry x="600" y="100" width="128" height="128" as="geometry" />
        </mxCell>
        <mxCell id="dQaOqvaRXOlE64BF7h_N-8" value="" style="shape=image;html=1;verticalAlign=top;verticalLabelPosition=bottom;labelBackgroundColor=#ffffff;imageAspect=0;aspect=fixed;image=https://cdn1.iconfinder.com/data/icons/ios-11-glyphs/30/money_bag-128.png" vertex="1" parent="1">
          <mxGeometry x="96" y="140" width="78" height="78" as="geometry" />
        </mxCell>
        <mxCell id="dQaOqvaRXOlE64BF7h_N-9" value="" style="shape=mxgraph.signs.travel.bank;html=1;pointerEvents=1;fillColor=#000000;strokeColor=none;verticalLabelPosition=bottom;verticalAlign=top;align=center;" vertex="1" parent="1">
          <mxGeometry x="389" y="527" width="50" height="46" as="geometry" />
        </mxCell>
        <mxCell id="dQaOqvaRXOlE64BF7h_N-10" value="" style="shape=image;html=1;verticalAlign=top;verticalLabelPosition=bottom;labelBackgroundColor=#ffffff;imageAspect=0;aspect=fixed;image=https://cdn2.iconfinder.com/data/icons/boxicons-solid-vol-1/24/bxs-bank-128.png" vertex="1" parent="1">
          <mxGeometry x="620" y="125" width="78" height="78" as="geometry" />
        </mxCell>
        <mxCell id="dQaOqvaRXOlE64BF7h_N-11" value="" style="shape=mxgraph.signs.travel.bank;html=1;pointerEvents=1;fillColor=#000000;strokeColor=none;verticalLabelPosition=bottom;verticalAlign=top;align=center;" vertex="1" parent="1">
          <mxGeometry x="628" y="380" width="70" height="56" as="geometry" />
        </mxCell>
        <mxCell id="dQaOqvaRXOlE64BF7h_N-12" value="" style="shape=image;html=1;verticalAlign=top;verticalLabelPosition=bottom;labelBackgroundColor=#ffffff;imageAspect=0;aspect=fixed;image=https://cdn4.iconfinder.com/data/icons/48-bubbles/48/04.Bank-128.png" vertex="1" parent="1">
          <mxGeometry x="90" y="374" width="68" height="68" as="geometry" />
        </mxCell>
        <mxCell id="dQaOqvaRXOlE64BF7h_N-13" value="" style="outlineConnect=0;dashed=0;verticalLabelPosition=bottom;verticalAlign=top;align=center;html=1;shape=mxgraph.aws3.bank;fillColor=#5294CF;gradientColor=none;" vertex="1" parent="1">
          <mxGeometry x="379" y="40.5" width="60" height="59.5" as="geometry" />
        </mxCell>
        <mxCell id="dQaOqvaRXOlE64BF7h_N-14" value="Originator&lt;br&gt;Initiates request for customer funds" style="text;html=1;align=center;verticalAlign=middle;resizable=0;points=[];autosize=1;strokeColor=none;fillColor=none;fontStyle=1" vertex="1" parent="1">
          <mxGeometry x="298" y="126" width="230" height="40" as="geometry" />
        </mxCell>
        <mxCell id="dQaOqvaRXOlE64BF7h_N-15" value="ACH Payment Processor&lt;br&gt;Provide software to send payment &lt;br&gt;request through&lt;br&gt;&amp;nbsp;batches to ODFI bank" style="text;html=1;align=center;verticalAlign=middle;resizable=0;points=[];autosize=1;strokeColor=none;fillColor=none;" vertex="1" parent="1">
          <mxGeometry x="554" y="220" width="210" height="70" as="geometry" />
        </mxCell>
        <mxCell id="dQaOqvaRXOlE64BF7h_N-16" value="ODFI(originating Depository Financial institution)&lt;br&gt;Enters ACH request details &lt;br&gt;and sends to clearing House&amp;nbsp;" style="text;html=1;align=center;verticalAlign=middle;resizable=0;points=[];autosize=1;strokeColor=none;fillColor=none;" vertex="1" parent="1">
          <mxGeometry x="515" y="462" width="290" height="60" as="geometry" />
        </mxCell>
        <mxCell id="dQaOqvaRXOlE64BF7h_N-17" value="Automated Clearing House Operator&lt;br&gt;Receive payment requests &lt;br&gt;and sends authorized requests &lt;br&gt;to the customer bank (RDFI)" style="text;html=1;align=center;verticalAlign=middle;resizable=0;points=[];autosize=1;strokeColor=none;fillColor=none;" vertex="1" parent="1">
          <mxGeometry x="307" y="613" width="220" height="70" as="geometry" />
        </mxCell>
        <mxCell id="dQaOqvaRXOlE64BF7h_N-18" value="RDFI&lt;br&gt;(Receives Merchant&#39;s request for funds &lt;br&gt;and debits the customer&#39;s account)" style="text;html=1;align=center;verticalAlign=middle;resizable=0;points=[];autosize=1;strokeColor=none;fillColor=none;" vertex="1" parent="1">
          <mxGeometry y="463" width="240" height="60" as="geometry" />
        </mxCell>
        <mxCell id="dQaOqvaRXOlE64BF7h_N-19" value="Merchant bank account&amp;nbsp;" style="text;html=1;align=center;verticalAlign=middle;resizable=0;points=[];autosize=1;strokeColor=none;fillColor=none;" vertex="1" parent="1">
          <mxGeometry x="61" y="208" width="150" height="30" as="geometry" />
        </mxCell>
        <mxCell id="dQaOqvaRXOlE64BF7h_N-20" value="" style="endArrow=classic;html=1;rounded=0;entryX=0.012;entryY=0.154;entryDx=0;entryDy=0;entryPerimeter=0;" edge="1" parent="1" target="dQaOqvaRXOlE64BF7h_N-10">
          <mxGeometry width="50" height="50" relative="1" as="geometry">
            <mxPoint x="465" y="80" as="sourcePoint" />
            <mxPoint x="515" y="30" as="targetPoint" />
          </mxGeometry>
        </mxCell>
        <mxCell id="dQaOqvaRXOlE64BF7h_N-21" value="" style="endArrow=classic;html=1;rounded=0;entryX=0.47;entryY=0.002;entryDx=0;entryDy=0;entryPerimeter=0;" edge="1" parent="1" source="dQaOqvaRXOlE64BF7h_N-15" target="dQaOqvaRXOlE64BF7h_N-6">
          <mxGeometry width="50" height="50" relative="1" as="geometry">
            <mxPoint x="490" y="310" as="sourcePoint" />
            <mxPoint x="540" y="260" as="targetPoint" />
          </mxGeometry>
        </mxCell>
        <mxCell id="dQaOqvaRXOlE64BF7h_N-22" value="" style="endArrow=classic;html=1;rounded=0;exitX=0.441;exitY=0.967;exitDx=0;exitDy=0;exitPerimeter=0;" edge="1" parent="1" source="dQaOqvaRXOlE64BF7h_N-16">
          <mxGeometry width="50" height="50" relative="1" as="geometry">
            <mxPoint x="651.9299999999998" y="523.18" as="sourcePoint" />
            <mxPoint x="465" y="554.3337584186826" as="targetPoint" />
          </mxGeometry>
        </mxCell>
        <mxCell id="dQaOqvaRXOlE64BF7h_N-23" value="" style="endArrow=classic;html=1;rounded=0;exitX=0.03;exitY=0.65;exitDx=0;exitDy=0;exitPerimeter=0;" edge="1" parent="1">
          <mxGeometry width="50" height="50" relative="1" as="geometry">
            <mxPoint x="369.5" y="556.9" as="sourcePoint" />
            <mxPoint x="219" y="521.3475046210721" as="targetPoint" />
          </mxGeometry>
        </mxCell>
        <mxCell id="dQaOqvaRXOlE64BF7h_N-24" value="" style="endArrow=classic;html=1;rounded=0;" edge="1" parent="1">
          <mxGeometry width="50" height="50" relative="1" as="geometry">
            <mxPoint x="120" y="360" as="sourcePoint" />
            <mxPoint x="120" y="240" as="targetPoint" />
          </mxGeometry>
        </mxCell>
      </root>
    </mxGraphModel>
  </diagram>
</mxfile>
