<mxfile host="app.diagrams.net" modified="2023-05-11T13:07:08.412Z" agent="Mozilla/5.0 (Windows NT 10.0; Win64; x64) AppleWebKit/537.36 (KHTML, like Gecko) Chrome/112.0.0.0 Safari/537.36" etag="r8Osrn9cFDcoNU5FALpw" version="21.2.9" type="gitlab">
  <diagram name="Page-1" id="hnyEUMbtGQFifTXT56MK">
    <mxGraphModel dx="989" dy="527" grid="1" gridSize="10" guides="1" tooltips="1" connect="1" arrows="1" fold="1" page="1" pageScale="1" pageWidth="850" pageHeight="1100" math="0" shadow="0">
      <root>
        <mxCell id="0" />
        <mxCell id="1" parent="0" />
        <mxCell id="FYS39UN0wJMHipKyCNj5-1" value="" style="ellipse;shape=cloud;whiteSpace=wrap;html=1;fontStyle=1" vertex="1" parent="1">
          <mxGeometry x="260" width="330" height="250" as="geometry" />
        </mxCell>
        <mxCell id="FYS39UN0wJMHipKyCNj5-3" value="" style="shape=mxgraph.signs.travel.bank;html=1;pointerEvents=1;fillColor=#000000;strokeColor=none;verticalLabelPosition=bottom;verticalAlign=top;align=center;fontStyle=1" vertex="1" parent="1">
          <mxGeometry x="670.5" y="80" width="99" height="86" as="geometry" />
        </mxCell>
        <mxCell id="FYS39UN0wJMHipKyCNj5-4" value="" style="shape=mxgraph.signs.travel.bank;html=1;pointerEvents=1;fillColor=#000000;strokeColor=none;verticalLabelPosition=bottom;verticalAlign=top;align=center;fontStyle=1" vertex="1" parent="1">
          <mxGeometry x="59.5" y="88" width="99" height="86" as="geometry" />
        </mxCell>
        <mxCell id="FYS39UN0wJMHipKyCNj5-5" value="Bank B" style="text;html=1;align=center;verticalAlign=middle;resizable=0;points=[];autosize=1;strokeColor=none;fillColor=none;fontStyle=1" vertex="1" parent="1">
          <mxGeometry x="690" y="50" width="60" height="30" as="geometry" />
        </mxCell>
        <mxCell id="FYS39UN0wJMHipKyCNj5-6" value="Bank&amp;nbsp; A" style="text;html=1;align=center;verticalAlign=middle;resizable=0;points=[];autosize=1;strokeColor=none;fillColor=none;fontStyle=1" vertex="1" parent="1">
          <mxGeometry x="65" y="58" width="70" height="30" as="geometry" />
        </mxCell>
        <mxCell id="FYS39UN0wJMHipKyCNj5-9" value="" style="endArrow=none;html=1;rounded=0;fontStyle=1" edge="1" parent="1">
          <mxGeometry width="50" height="50" relative="1" as="geometry">
            <mxPoint x="40" y="40" as="sourcePoint" />
            <mxPoint x="360" y="40" as="targetPoint" />
          </mxGeometry>
        </mxCell>
        <mxCell id="FYS39UN0wJMHipKyCNj5-10" value="" style="endArrow=none;html=1;rounded=0;fontStyle=1" edge="1" parent="1">
          <mxGeometry width="50" height="50" relative="1" as="geometry">
            <mxPoint x="40" y="200" as="sourcePoint" />
            <mxPoint x="40" y="40" as="targetPoint" />
          </mxGeometry>
        </mxCell>
        <mxCell id="FYS39UN0wJMHipKyCNj5-11" value="" style="endArrow=none;html=1;rounded=0;fontStyle=1;" edge="1" parent="1">
          <mxGeometry width="50" height="50" relative="1" as="geometry">
            <mxPoint x="40" y="200" as="sourcePoint" />
            <mxPoint x="320" y="200" as="targetPoint" />
          </mxGeometry>
        </mxCell>
        <mxCell id="FYS39UN0wJMHipKyCNj5-14" value="SWIFT&amp;nbsp; Interface" style="text;html=1;align=center;verticalAlign=middle;resizable=0;points=[];autosize=1;strokeColor=none;fillColor=none;fontStyle=1" vertex="1" parent="1">
          <mxGeometry x="159" y="128" width="120" height="30" as="geometry" />
        </mxCell>
        <mxCell id="FYS39UN0wJMHipKyCNj5-16" value="Internal payment system" style="rounded=0;whiteSpace=wrap;html=1;fontStyle=1" vertex="1" parent="1">
          <mxGeometry x="159" y="53" width="120" height="60" as="geometry" />
        </mxCell>
        <mxCell id="FYS39UN0wJMHipKyCNj5-21" value="Payment Settled&amp;nbsp;" style="text;html=1;strokeColor=none;fillColor=none;align=center;verticalAlign=middle;whiteSpace=wrap;rounded=0;fontStyle=1" vertex="1" parent="1">
          <mxGeometry x="570" y="90" width="60" height="30" as="geometry" />
        </mxCell>
        <mxCell id="FYS39UN0wJMHipKyCNj5-22" value="Authorisation/&lt;br&gt;refusal" style="text;html=1;strokeColor=none;fillColor=none;align=center;verticalAlign=middle;whiteSpace=wrap;rounded=0;fontStyle=1" vertex="1" parent="1">
          <mxGeometry x="434" y="188" width="60" height="30" as="geometry" />
        </mxCell>
        <mxCell id="FYS39UN0wJMHipKyCNj5-41" value="" style="group;fontStyle=1" vertex="1" connectable="0" parent="1">
          <mxGeometry x="45" y="290" width="760" height="190" as="geometry" />
        </mxCell>
        <mxCell id="FYS39UN0wJMHipKyCNj5-33" value="" style="rounded=0;whiteSpace=wrap;html=1;fontStyle=1" vertex="1" parent="FYS39UN0wJMHipKyCNj5-41">
          <mxGeometry width="760" height="190" as="geometry" />
        </mxCell>
        <mxCell id="FYS39UN0wJMHipKyCNj5-34" value="" style="group;fontStyle=1" vertex="1" connectable="0" parent="FYS39UN0wJMHipKyCNj5-41">
          <mxGeometry x="180" y="40" width="390" height="120" as="geometry" />
        </mxCell>
        <mxCell id="FYS39UN0wJMHipKyCNj5-35" value="SWIFT Interface" style="rounded=0;whiteSpace=wrap;html=1;fontStyle=1" vertex="1" parent="FYS39UN0wJMHipKyCNj5-34">
          <mxGeometry x="138" width="120" height="30" as="geometry" />
        </mxCell>
        <mxCell id="FYS39UN0wJMHipKyCNj5-36" value="Payment Processing&lt;br&gt;Bank A&amp;nbsp; &amp;nbsp; &amp;nbsp; &amp;nbsp; &amp;nbsp; &amp;nbsp;Bank B" style="rounded=1;whiteSpace=wrap;html=1;fontStyle=1" vertex="1" parent="FYS39UN0wJMHipKyCNj5-34">
          <mxGeometry y="60" width="120" height="60" as="geometry" />
        </mxCell>
        <mxCell id="FYS39UN0wJMHipKyCNj5-37" value="Central Web Server" style="rounded=1;whiteSpace=wrap;html=1;fontStyle=1" vertex="1" parent="FYS39UN0wJMHipKyCNj5-34">
          <mxGeometry x="270" y="60" width="120" height="60" as="geometry" />
        </mxCell>
        <mxCell id="FYS39UN0wJMHipKyCNj5-38" value="" style="line;strokeWidth=2;html=1;fontStyle=1" vertex="1" parent="FYS39UN0wJMHipKyCNj5-34">
          <mxGeometry x="120" y="85" width="150" height="10" as="geometry" />
        </mxCell>
        <mxCell id="FYS39UN0wJMHipKyCNj5-39" value="" style="endArrow=none;html=1;rounded=0;exitX=0.25;exitY=0;exitDx=0;exitDy=0;fontStyle=1" edge="1" parent="FYS39UN0wJMHipKyCNj5-34" source="FYS39UN0wJMHipKyCNj5-36">
          <mxGeometry width="50" height="50" relative="1" as="geometry">
            <mxPoint x="88" y="60" as="sourcePoint" />
            <mxPoint x="138" y="10" as="targetPoint" />
          </mxGeometry>
        </mxCell>
        <mxCell id="FYS39UN0wJMHipKyCNj5-40" value="" style="endArrow=none;html=1;rounded=0;entryX=1;entryY=0.5;entryDx=0;entryDy=0;fontStyle=1" edge="1" parent="FYS39UN0wJMHipKyCNj5-34" target="FYS39UN0wJMHipKyCNj5-35">
          <mxGeometry width="50" height="50" relative="1" as="geometry">
            <mxPoint x="348" y="60" as="sourcePoint" />
            <mxPoint x="398" y="10" as="targetPoint" />
          </mxGeometry>
        </mxCell>
        <mxCell id="FYS39UN0wJMHipKyCNj5-42" value="" style="shape=mxgraph.signs.travel.bank;html=1;pointerEvents=1;fillColor=#000000;strokeColor=none;verticalLabelPosition=bottom;verticalAlign=top;align=center;fontStyle=1" vertex="1" parent="FYS39UN0wJMHipKyCNj5-41">
          <mxGeometry x="-5" y="-40" width="99" height="86" as="geometry" />
        </mxCell>
        <mxCell id="FYS39UN0wJMHipKyCNj5-43" value="central Institution" style="text;html=1;strokeColor=none;fillColor=none;align=center;verticalAlign=middle;whiteSpace=wrap;rounded=0;fontStyle=1" vertex="1" parent="FYS39UN0wJMHipKyCNj5-41">
          <mxGeometry x="23.5" y="50" width="60" height="30" as="geometry" />
        </mxCell>
        <mxCell id="FYS39UN0wJMHipKyCNj5-51" value="" style="endArrow=none;html=1;rounded=0;fontStyle=1" edge="1" parent="FYS39UN0wJMHipKyCNj5-41">
          <mxGeometry width="50" height="50" relative="1" as="geometry">
            <mxPoint x="375" y="40" as="sourcePoint" />
            <mxPoint x="375" y="-200" as="targetPoint" />
          </mxGeometry>
        </mxCell>
        <mxCell id="FYS39UN0wJMHipKyCNj5-47" value="" style="group;fontStyle=1" vertex="1" connectable="0" parent="1">
          <mxGeometry x="279" y="90" width="111" height="240" as="geometry" />
        </mxCell>
        <mxCell id="FYS39UN0wJMHipKyCNj5-44" value="" style="endArrow=classic;html=1;rounded=0;fontStyle=1" edge="1" parent="FYS39UN0wJMHipKyCNj5-47">
          <mxGeometry width="50" height="50" relative="1" as="geometry">
            <mxPoint x="111" as="sourcePoint" />
            <mxPoint x="111" y="240" as="targetPoint" />
          </mxGeometry>
        </mxCell>
        <mxCell id="FYS39UN0wJMHipKyCNj5-46" value="" style="endArrow=none;html=1;rounded=0;fontStyle=1" edge="1" parent="FYS39UN0wJMHipKyCNj5-47">
          <mxGeometry width="50" height="50" relative="1" as="geometry">
            <mxPoint as="sourcePoint" />
            <mxPoint x="111" as="targetPoint" />
          </mxGeometry>
        </mxCell>
        <mxCell id="FYS39UN0wJMHipKyCNj5-23" value="Settlement Request" style="text;html=1;strokeColor=none;fillColor=none;align=center;verticalAlign=middle;whiteSpace=wrap;rounded=0;fontStyle=1" vertex="1" parent="FYS39UN0wJMHipKyCNj5-47">
          <mxGeometry x="41" y="60" width="60" height="30" as="geometry" />
        </mxCell>
        <mxCell id="FYS39UN0wJMHipKyCNj5-54" value="" style="endArrow=classic;html=1;rounded=0;" edge="1" parent="1">
          <mxGeometry width="50" height="50" relative="1" as="geometry">
            <mxPoint x="420" y="90" as="sourcePoint" />
            <mxPoint x="670" y="90" as="targetPoint" />
          </mxGeometry>
        </mxCell>
      </root>
    </mxGraphModel>
  </diagram>
</mxfile>
